%YAML 1.1
%TAG !u! tag:unity3d.com,2011:
--- !u!114 &11400000
MonoBehaviour:
  m_ObjectHideFlags: 0
  m_CorrespondingSourceObject: {fileID: 0}
  m_PrefabInstance: {fileID: 0}
  m_PrefabAsset: {fileID: 0}
  m_GameObject: {fileID: 0}
  m_Enabled: 1
  m_EditorHideFlags: 0
  m_Script: {fileID: 11500000, guid: e20927820974c0b4ebc67985b81ab58a, type: 3}
  m_Name: montana
  m_EditorClassIdentifier: 
  info:
    color: {fileID: 2100000, guid: 546b3d25e90c45a4993bed8f7a46ee26, type: 2}
    frequency: 4
    offsetX: 628
    offsetY: 635
    props:
    - {fileID: 627146223452851558, guid: beb3d37fcd8cbf041b865512cc8290dc, type: 3}
    - {fileID: 2901916024958077272, guid: d3072855ec0451d4cba21439e2deacbf, type: 3}
