%YAML 1.1
%TAG !u! tag:unity3d.com,2011:
--- !u!1 &5030176715725203349
GameObject:
  m_ObjectHideFlags: 0
  m_CorrespondingSourceObject: {fileID: 0}
  m_PrefabInstance: {fileID: 0}
  m_PrefabAsset: {fileID: 0}
  serializedVersion: 6
  m_Component:
  - component: {fileID: 7002831953135402603}
  - component: {fileID: 786094665024693901}
  - component: {fileID: 6045757525747008113}
  m_Layer: 0
  m_Name: Cube (2)
  m_TagString: Untagged
  m_Icon: {fileID: 0}
  m_NavMeshLayer: 0
  m_StaticEditorFlags: 0
  m_IsActive: 1
--- !u!4 &7002831953135402603
Transform:
  m_ObjectHideFlags: 0
  m_CorrespondingSourceObject: {fileID: 0}
  m_PrefabInstance: {fileID: 0}
  m_PrefabAsset: {fileID: 0}
  m_GameObject: {fileID: 5030176715725203349}
  m_LocalRotation: {x: 0.6460503, y: -0.29465815, z: 0.6391186, w: -0.2955049}
  m_LocalPosition: {x: -0.83, y: -0.601, z: 2.11}
  m_LocalScale: {x: 0.44787, y: 1.2683, z: 6.4215}
  m_ConstrainProportionsScale: 0
  m_Children: []
  m_Father: {fileID: 8690315174176281256}
  m_RootOrder: -1
  m_LocalEulerAnglesHint: {x: -0.297, y: 90.482, z: 229.329}
--- !u!33 &786094665024693901
MeshFilter:
  m_ObjectHideFlags: 0
  m_CorrespondingSourceObject: {fileID: 0}
  m_PrefabInstance: {fileID: 0}
  m_PrefabAsset: {fileID: 0}
  m_GameObject: {fileID: 5030176715725203349}
  m_Mesh: {fileID: 10202, guid: 0000000000000000e000000000000000, type: 0}
--- !u!23 &6045757525747008113
MeshRenderer:
  m_ObjectHideFlags: 0
  m_CorrespondingSourceObject: {fileID: 0}
  m_PrefabInstance: {fileID: 0}
  m_PrefabAsset: {fileID: 0}
  m_GameObject: {fileID: 5030176715725203349}
  m_Enabled: 1
  m_CastShadows: 1
  m_ReceiveShadows: 1
  m_DynamicOccludee: 1
  m_StaticShadowCaster: 0
  m_MotionVectors: 1
  m_LightProbeUsage: 1
  m_ReflectionProbeUsage: 1
  m_RayTracingMode: 2
  m_RayTraceProcedural: 0
  m_RenderingLayerMask: 1
  m_RendererPriority: 0
  m_Materials:
  - {fileID: 2100000, guid: a8d54e24138814c498b6656d9a4155c5, type: 2}
  m_StaticBatchInfo:
    firstSubMesh: 0
    subMeshCount: 0
  m_StaticBatchRoot: {fileID: 0}
  m_ProbeAnchor: {fileID: 0}
  m_LightProbeVolumeOverride: {fileID: 0}
  m_ScaleInLightmap: 1
  m_ReceiveGI: 1
  m_PreserveUVs: 0
  m_IgnoreNormalsForChartDetection: 0
  m_ImportantGI: 0
  m_StitchLightmapSeams: 1
  m_SelectedEditorRenderState: 3
  m_MinimumChartSize: 4
  m_AutoUVMaxDistance: 0.5
  m_AutoUVMaxAngle: 89
  m_LightmapParameters: {fileID: 0}
  m_SortingLayerID: 0
  m_SortingLayer: 0
  m_SortingOrder: 0
  m_AdditionalVertexStreams: {fileID: 0}
--- !u!1001 &8821051614070910469
PrefabInstance:
  m_ObjectHideFlags: 0
  serializedVersion: 2
  m_Modification:
    serializedVersion: 3
    m_TransformParent: {fileID: 0}
    m_Modifications:
    - target: {fileID: 211836508186082477, guid: 0156de65d22d8c14795d496fed490f40,
        type: 3}
      propertyPath: m_RootOrder
      value: 6
      objectReference: {fileID: 0}
    - target: {fileID: 211836508186082477, guid: 0156de65d22d8c14795d496fed490f40,
        type: 3}
      propertyPath: m_LocalPosition.x
      value: 0
      objectReference: {fileID: 0}
    - target: {fileID: 211836508186082477, guid: 0156de65d22d8c14795d496fed490f40,
        type: 3}
      propertyPath: m_LocalPosition.y
      value: 1
      objectReference: {fileID: 0}
    - target: {fileID: 211836508186082477, guid: 0156de65d22d8c14795d496fed490f40,
        type: 3}
      propertyPath: m_LocalPosition.z
      value: 0
      objectReference: {fileID: 0}
    - target: {fileID: 211836508186082477, guid: 0156de65d22d8c14795d496fed490f40,
        type: 3}
      propertyPath: m_LocalRotation.w
      value: 1
      objectReference: {fileID: 0}
    - target: {fileID: 211836508186082477, guid: 0156de65d22d8c14795d496fed490f40,
        type: 3}
      propertyPath: m_LocalRotation.x
      value: 0
      objectReference: {fileID: 0}
    - target: {fileID: 211836508186082477, guid: 0156de65d22d8c14795d496fed490f40,
        type: 3}
      propertyPath: m_LocalRotation.y
      value: 0
      objectReference: {fileID: 0}
    - target: {fileID: 211836508186082477, guid: 0156de65d22d8c14795d496fed490f40,
        type: 3}
      propertyPath: m_LocalRotation.z
      value: 0
      objectReference: {fileID: 0}
    - target: {fileID: 211836508186082477, guid: 0156de65d22d8c14795d496fed490f40,
        type: 3}
      propertyPath: m_LocalEulerAnglesHint.x
      value: 0
      objectReference: {fileID: 0}
    - target: {fileID: 211836508186082477, guid: 0156de65d22d8c14795d496fed490f40,
        type: 3}
      propertyPath: m_LocalEulerAnglesHint.y
      value: 0
      objectReference: {fileID: 0}
    - target: {fileID: 211836508186082477, guid: 0156de65d22d8c14795d496fed490f40,
        type: 3}
      propertyPath: m_LocalEulerAnglesHint.z
      value: 0
      objectReference: {fileID: 0}
    - target: {fileID: 691072887045122099, guid: 0156de65d22d8c14795d496fed490f40,
        type: 3}
      propertyPath: m_LocalScale.y
      value: 1.2683
      objectReference: {fileID: 0}
    - target: {fileID: 691072887045122099, guid: 0156de65d22d8c14795d496fed490f40,
        type: 3}
      propertyPath: m_LocalScale.z
      value: 6.4215
      objectReference: {fileID: 0}
    - target: {fileID: 691072887045122099, guid: 0156de65d22d8c14795d496fed490f40,
        type: 3}
      propertyPath: m_LocalPosition.x
      value: -0.21
      objectReference: {fileID: 0}
    - target: {fileID: 691072887045122099, guid: 0156de65d22d8c14795d496fed490f40,
        type: 3}
      propertyPath: m_LocalPosition.y
      value: -0.542
      objectReference: {fileID: 0}
    - target: {fileID: 691072887045122099, guid: 0156de65d22d8c14795d496fed490f40,
        type: 3}
      propertyPath: m_LocalPosition.z
      value: -1.59
      objectReference: {fileID: 0}
    - target: {fileID: 691072887045122099, guid: 0156de65d22d8c14795d496fed490f40,
        type: 3}
      propertyPath: m_LocalRotation.w
      value: -0.2955049
      objectReference: {fileID: 0}
    - target: {fileID: 691072887045122099, guid: 0156de65d22d8c14795d496fed490f40,
        type: 3}
      propertyPath: m_LocalRotation.x
      value: 0.6460503
      objectReference: {fileID: 0}
    - target: {fileID: 691072887045122099, guid: 0156de65d22d8c14795d496fed490f40,
        type: 3}
      propertyPath: m_LocalRotation.y
      value: -0.29465815
      objectReference: {fileID: 0}
    - target: {fileID: 691072887045122099, guid: 0156de65d22d8c14795d496fed490f40,
        type: 3}
      propertyPath: m_LocalRotation.z
      value: 0.6391186
      objectReference: {fileID: 0}
    - target: {fileID: 691072887045122099, guid: 0156de65d22d8c14795d496fed490f40,
        type: 3}
      propertyPath: m_LocalEulerAnglesHint.x
      value: -0.297
      objectReference: {fileID: 0}
    - target: {fileID: 691072887045122099, guid: 0156de65d22d8c14795d496fed490f40,
        type: 3}
      propertyPath: m_LocalEulerAnglesHint.y
      value: 90.482
      objectReference: {fileID: 0}
    - target: {fileID: 691072887045122099, guid: 0156de65d22d8c14795d496fed490f40,
        type: 3}
      propertyPath: m_LocalEulerAnglesHint.z
      value: 229.329
      objectReference: {fileID: 0}
    - target: {fileID: 3020752655485955222, guid: 0156de65d22d8c14795d496fed490f40,
        type: 3}
      propertyPath: m_Name
      value: hierbajo Variant
      objectReference: {fileID: 0}
    m_RemovedComponents: []
    m_RemovedGameObjects:
    - {fileID: 8368781447697164677, guid: 0156de65d22d8c14795d496fed490f40, type: 3}
    - {fileID: 6181482840326373830, guid: 0156de65d22d8c14795d496fed490f40, type: 3}
    - {fileID: 4422385474438559887, guid: 0156de65d22d8c14795d496fed490f40, type: 3}
    - {fileID: 6315414564501520092, guid: 0156de65d22d8c14795d496fed490f40, type: 3}
    - {fileID: 5088450003996587563, guid: 0156de65d22d8c14795d496fed490f40, type: 3}
    m_AddedGameObjects:
    - targetCorrespondingSourceObject: {fileID: 211836508186082477, guid: 0156de65d22d8c14795d496fed490f40,
        type: 3}
      insertIndex: -1
      addedObject: {fileID: 7002831953135402603}
    m_AddedComponents: []
  m_SourcePrefab: {fileID: 100100000, guid: 0156de65d22d8c14795d496fed490f40, type: 3}
--- !u!4 &8690315174176281256 stripped
Transform:
  m_CorrespondingSourceObject: {fileID: 211836508186082477, guid: 0156de65d22d8c14795d496fed490f40,
    type: 3}
  m_PrefabInstance: {fileID: 8821051614070910469}
  m_PrefabAsset: {fileID: 0}
